\select@language {english}
\contentsline {section}{\numberline {1}Use Case}{3}
\contentsline {subsection}{\numberline {1.1}Use Case 1}{3}
\contentsline {subsection}{\numberline {1.2}Use Case 2}{3}
\contentsline {subsection}{\numberline {1.3}Use Case 3}{4}
\contentsline {subsection}{\numberline {1.4}Use Case 4}{4}
\contentsline {subsection}{\numberline {1.5}Use Case 5}{5}
\contentsline {subsection}{\numberline {1.6}Use Case 6}{6}
\contentsline {subsection}{\numberline {1.7}Use Case 7}{7}
\contentsline {subsection}{\numberline {1.8}Use Case 8}{8}
\contentsline {subsection}{\numberline {1.9}Use Case 9}{8}
\contentsline {subsection}{\numberline {1.10}Use Case 10}{9}
